…
- **1** = Yes
- **2** = Abstain
- **3** = No
- **8** = Not present
- **9** = Not a member

One step of data cleaning is removing observations (rows) that you're not interested in. In this case, you want to remove "Not present" and "Not a member".

```R
# Load the dplyr package
library(dplyr)

# Print the votes dataset
print(votes)
# A tibble: 508,929 x 4
    rcid session  vote ccode
   <dbl>   <dbl> <dbl> <int>
 1    46       2     1     2
 2    46       2     1    20
 3    46       2     9    31
 4    46       2     1    40
 5    46       2     1    41
 6    46       2     1    42
 7    46       2     9    51
 8    46       2     9    52
 9    46       2     9    53
10    46       2     9    54
# ... with 508,919 more rows

# Filter for votes that are "yes", "abstain", or "no"
votes %>%
  filter(vote <= 3)
# A tibble: 353,547 x 4
    rcid session  vote ccode
   <dbl>   <dbl> <dbl> <int>
 1    46       2     1     2
 2    46       2     1    20
 3    46       2     1    40
 4    46       2     1    41
 5    46       2     1    42
 6    46       2     1    70
 7    46       2     1    90
 8    46       2     1    91
 9    46       2     1    92
10    46       2     1    93
# ... with 353,537 more rows
```

Adding a year column
===

The next step of data cleaning is manipulating your variables (columns) to make them more informative.

In this case, you have a `session` column that is hard to interpret intuitively. But since the UN started voting in 1946, and holds one session per year, you can get the year of a UN resolution by adding 1945 to the `session` number.

```R
# Add another %>% step to add a year column
votes %>%
  filter(vote <= 3) %>%
  mutate(year = session + 1945)
# A tibble: 353,547 x 5
    rcid session  vote ccode  year
   <dbl>   <dbl> <dbl> <int> <dbl>
 1    46       2     1     2  1947
 2    46       2     1    20  1947
 3    46       2     1    40  1947
 4    46       2     1    41  1947
 5    46       2     1    42  1947
 6    46       2     1    70  1947
 7    46       2     1    90  1947
 8    46       2     1    91  1947
 9    46       2     1    92  1947
10    46       2     1    93  1947
# ... with 353,537 more rows
```
…
Summarizing the full dataset
===

In this analysis, you're going to focus on "% of votes that are yes" as a metric for the "agreeableness" of countries.

You'll start by finding this summary for the entire dataset: the fraction of all votes in their history that were "yes". Note that within your call to `summarize()`, you can use `n()` to find the total number of votes and `mean(vote == 1)` to find the fraction of "yes" votes.

```R
# Print votes_processed
print(votes_processed)
# A tibble: 353,547 x 6
    rcid session  vote ccode  year            country
   <dbl>   <dbl> <dbl> <int> <dbl>              <chr>
 1    46       2     1     2  1947      United States
 2    46       2     1    20  1947             Canada
 3    46       2     1    40  1947               Cuba
 4    46       2     1    41  1947              Haiti
 5    46       2     1    42  1947 Dominican Republic
 6    46       2     1    70  1947             Mexico
 7    46       2     1    90  1947          Guatemala
 8    46       2     1    91  1947           Honduras
 9    46       2     1    92  1947        El Salvador
10    46       2     1    93  1947          Nicaragua
# ... with 353,537 more rows
…
Summarizing by year
===

The `summarize()` function is especially useful because it can be used within *groups*.

For example, you might like to know how much the average "agreeableness" of countries changed from year to year. To examine this, you can use `group_by()` to perform your summary not for the entire dataset, but within each year.

```R
# Change this code to summarize by year
votes_processed %>%
  group_by(year) %>%
  summarize(total = n(),
            percent_yes = mean(vote == 1))
# A tibble: 34 x 3
    year total percent_yes
   <dbl> <int>       <dbl>
 1  1947  2039   0.5693968
 2  1949  3469   0.4375901
 3  1951  1434   0.5850767
 4  1953  1537   0.6317502
 5  1955  2169   0.6947902
 6  1957  2708   0.6085672
 7  1959  4326   0.5880721
 8  1961  7482   0.5729751
 9  1963  3308   0.7294438
10  1965  4382   0.7078959
# ... with 24 more rows
```

Summarizing by country
===

In the last exercise, you performed a summary of the votes within each year. You could instead `summarize()` within each country, which would let you compare voting patterns between countries.

```R
# Summarize by country: by_country
by_country <- votes_processed %>%
                group_by(country) %>%
                summarize(total = n(),
                percent_yes = mean(vote == 1))
# A tibble: 200 x 3
               country total percent_yes
                 <chr> <int>       <dbl>
 1         Afghanistan  2373   0.8592499
 2             Albania  1695   0.7174041
 3             Algeria  2213   0.8992318
 4             Andorra   719   0.6383866
 5              Angola  1431   0.9238295
 6 Antigua and Barbuda  1302   0.9124424
 7           Argentina  2553   0.7677242
 8             Armenia   758   0.7467018
 9           Australia  2575   0.5565049
10             Austria  2389   0.6224362
# ... with 190 more rows
```
…
```R
# You have the votes summarized by country
by_country <- votes_processed %>%
  group_by(country) %>%
  summarize(total = n(),
            percent_yes = mean(vote == 1))

# Print the by_country dataset
print(by_country)

# Sort in ascending order of percent_yes
by_country %>%
  arrange(percent_yes)
# A tibble: 200 x 3
                           country total percent_yes
                             <chr> <int>       <dbl>
 1                        Zanzibar     2   0.0000000
 2                   United States  2568   0.2694704
 3                           Palau   369   0.3387534
 4                          Israel  2380   0.3407563
 5     Federal Republic of Germany  1075   0.3972093
 6                  United Kingdom  2558   0.4167318
 7                          France  2527   0.4265928
 8 Micronesia, Federated States of   724   0.4419890
 9                Marshall Islands   757   0.4914135
10                         Belgium  2568   0.4922118
# ... with 190 more rows

# Now sort in descending order
by_country %>%
  arrange(desc(percent_yes))
# A tibble: 200 x 3
                 country total percent_yes
                   <chr> <int>       <dbl>
 1 Sao Tome and Principe  1091   0.9761687
 2            Seychelles   881   0.9750284
 3              Djibouti  1598   0.9612015
 4         Guinea-Bissau  1538   0.9603381
 5           Timor-Leste   326   0.9570552
 6             Mauritius  1831   0.9497542
 7              Zimbabwe  1361   0.9493020
 8               Comoros  1133   0.9470432
 9  United Arab Emirates  1934   0.9467425
10            Mozambique  1701   0.9465021
# ... with 190 more rows
```
…
Linear regression on the United States
===

A linear regression is a model that lets us examine how one variable changes with respect to another by fitting a best fit line. It is done with the `lm()` function in R.

Here, you'll fit a linear regression to just the percentage of "yes" votes from the United States.

```R
# Percentage of yes votes from the US by year: US_by_year
US_by_year <- by_year_country %>%
  filter(country == "United States")

# Print the US_by_year data
print(US_by_year)
# A tibble: 34 x 4
    year       country total percent_yes
   <dbl>         <chr> <int>       <dbl>
 1  1947 United States    38   0.7105263
 2  1949 United States    64   0.2812500
 3  1951 United States    25   0.4000000
 4  1953 United States    26   0.5000000
 5  1955 United States    37   0.6216216
 6  1957 United States    34   0.6470588
 7  1959 United States    54   0.4259259
 8  1961 United States    75   0.5066667
 9  1963 United States    32   0.5000000
10  1965 United States    41   0.3658537
# ... with 24 more rows
…
Nesting a data frame
===

Right now, the `by_year_country` data frame has one row per country-vote pair. So that you can model each country individually, you're going to "nest" all columns besides `country`, which will result in a data frame with one row per country. The data for each individual country will then be stored in a **list column** called `data`.

```R
# Load the tidyr package
library(tidyr)

# Nest all columns besides country
by_year_country %>%
  nest(- country)
# A tibble: 200 x 2
                           country              data
                             <chr>            <list>
 1                     Afghanistan <tibble [34 x 3]>
 2                       Argentina <tibble [34 x 3]>
 3                       Australia <tibble [34 x 3]>
 4                         Belarus <tibble [34 x 3]>
 5                         Belgium <tibble [34 x 3]>
 6 Bolivia, Plurinational State of <tibble [34 x 3]>
 7                          Brazil <tibble [34 x 3]>
 8                          Canada <tibble [34 x 3]>
 9                           Chile <tibble [34 x 3]>
10                        Colombia <tibble [34 x 3]>
# ... with 190 more rows
```
…
```

You can use `nested$data` to access this list column and double brackets to access a particular element. For example, `nested$data[[1]]` would give you the data frame with Afghanistan's voting history (the `percent_yes` per year), since Afghanistan is the first row of the table.

```R
# All countries are nested besides country
nested <- by_year_country %>%
  nest(-country)

# Print the nested data for Brazil
nested$data[[7]]
# A tibble: 34 x 3
    year total percent_yes
   <dbl> <int>       <dbl>
 1  1947    38   0.6578947
 2  1949    64   0.4687500
 3  1951    25   0.6400000
 4  1953    26   0.7307692
 5  1955    37   0.7297297
 6  1957    34   0.7352941
 7  1959    54   0.5370370
 8  1961    76   0.5526316
 9  1963    32   0.7812500
10  1965    41   0.6097561
# ... with 24 more rows
```
…
The opposite of the `nest()` operation is the `unnest()` operation. This takes each of the data frames in the list column and brings those rows back to the main data frame.

In this exercise, you are just undoing the `nest()` operation. In the next section, you'll learn how to fit a model in between these nesting and unnesting steps that makes this process useful.

```R
# All countries are nested besides country
nested <- by_year_country %>%
  nest(-country)

# Unnest the data column to return it to its original form
nested %>%
  unnest(data)
# A tibble: 4,744 x 4
       country  year total percent_yes
         <chr> <dbl> <int>       <dbl>
 1 Afghanistan  1947    34   0.3823529
 2 Afghanistan  1949    51   0.6078431
 3 Afghanistan  1951    25   0.7600000
 4 Afghanistan  1953    26   0.7692308
 5 Afghanistan  1955    37   0.7297297
 6 Afghanistan  1957    34   0.5294118
 7 Afghanistan  1959    54   0.6111111
 8 Afghanistan  1961    76   0.6052632
 9 Afghanistan  1963    32   0.7812500
10 Afghanistan  1965    40   0.8500000
# ... with 4,734 more rows
```
…
where `.` represents each individual item from the `data` column in `by_year_country`. Recall that each item in the `data` column is a dataset that pertains to a specific country.

```R
# Load tidyr and purrr
library(tidyr)
library(purrr)


# Perform a linear regression on each item in the data column
by_year_country %>%
  nest(-country) %>%
  mutate(model = map(data, ~ lm(percent_yes ~ year, data = .)))
# A tibble: 200 x 3
                           country              data    model
                             <chr>            <list>   <list>
 1                     Afghanistan <tibble [34 x 3]> <S3: lm>
 2                       Argentina <tibble [34 x 3]> <S3: lm>
 3                       Australia <tibble [34 x 3]> <S3: lm>
 4                         Belarus <tibble [34 x 3]> <S3: lm>
 5                         Belgium <tibble [34 x 3]> <S3: lm>
 6 Bolivia, Plurinational State of <tibble [34 x 3]> <S3: lm>
 7                          Brazil <tibble [34 x 3]> <S3: lm>
 8                          Canada <tibble [34 x 3]> <S3: lm>
 9                           Chile <tibble [34 x 3]> <S3: lm>
10                        Colombia <tibble [34 x 3]> <S3: lm>
# ... with 190 more rows
```
…
You've now performed a linear regression on each nested dataset and have a linear model stored in the list column `model`. But you can't recombine the models until you've *tidied* each into a table of coefficients. To do that, you'll need to use `map()` one more time and the `tidy()` function from the `broom` package.

Recall that you can simply give a function to `map()` (e.g. `map(models, tidy)`) in order to apply that function to each item of a list.

```R
# Load the broom package
library(broom)

# Add another mutate that applies tidy() to each model
by_year_country %>%
  nest(-country) %>%
  mutate(model = map(data, ~ lm(percent_yes ~ year, data = .))) %>%
  mutate(tidied = map(model, tidy))
# A tibble: 200 x 3
                           country              data    model
                             <chr>            <list>   <list>
 1                     Afghanistan <tibble [34 x 3]> <S3: lm>
 2                       Argentina <tibble [34 x 3]> <S3: lm>
 3                       Australia <tibble [34 x 3]> <S3: lm>
 4                         Belarus <tibble [34 x 3]> <S3: lm>
 5                         Belgium <tibble [34 x 3]> <S3: lm>
 6 Bolivia, Plurinational State of <tibble [34 x 3]> <S3: lm>
 7                          Brazil <tibble [34 x 3]> <S3: lm>
 8                          Canada <tibble [34 x 3]> <S3: lm>
 9                           Chile <tibble [34 x 3]> <S3: lm>
10                        Colombia <tibble [34 x 3]> <S3: lm>
# ... with 190 more rows
```
…
You now have a tidied version of each model stored in the `tidied`column. You want to combine all of those into a large data frame, similar to how you combined the US and UK tidied models earlier. Recall that the `unnest()` function from `tidyr` achieves this.

```R
# Add one more step that unnests the tidied column
country_coefficients <- by_year_country %>%
            nest(-country) %>%
            mutate(model = map(data, ~ lm(percent_yes ~ year, data = .))) %>%
            mutate(tidied = map(model, tidy)) %>%
            unnest(tidied)

# Print the resulting country_coefficients variable
print(country_coefficients)
# A tibble: 399 x 6
       country        term      estimate    std.error statistic      p.value
         <chr>       <chr>         <dbl>        <dbl>     <dbl>        <dbl>
 1 Afghanistan (Intercept) -11.063084650 1.4705189228 -7.523252 1.444892e-08
 2 Afghanistan        year   0.006009299 0.0007426499  8.091698 3.064797e-09
 3   Argentina (Intercept)  -9.464512565 2.1008982371 -4.504984 8.322481e-05
 4   Argentina        year   0.005148829 0.0010610076  4.852773 3.047078e-05
 5   Australia (Intercept)  -4.545492536 2.1479916283 -2.116159 4.220387e-02
 6   Australia        year   0.002567161 0.0010847910  2.366503 2.417617e-02
 7     Belarus (Intercept)  -7.000692717 1.5024232546 -4.659601 5.329950e-05
 8     Belarus        year   0.003907557 0.0007587624  5.149908 1.284924e-05
 9     Belgium (Intercept)  -5.845534016 1.5153390521 -3.857575 5.216573e-04
10     Belgium        year   0.003203234 0.0007652852  4.185673 2.072981e-04
# ... with 389 more rows
```

Filtering model terms
===

You currently have both the intercept and slope terms for each by-country model. You're probably more interested in how each is changing over time, so you want to focus on the slope terms.

```R
# Print the country_coefficients dataset
print(country_coefficients)

# Filter for only the slope terms
country_coefficients %>%
  filter(term == "year")
# A tibble: 199 x 6
                           country  term    estimate    std.error statistic
                             <chr> <chr>       <dbl>        <dbl>     <dbl>
 1                     Afghanistan  year 0.006009299 0.0007426499  8.091698
 2                       Argentina  year 0.005148829 0.0010610076  4.852773
 3                       Australia  year 0.002567161 0.0010847910  2.366503
 4                         Belarus  year 0.003907557 0.0007587624  5.149908
 5                         Belgium  year 0.003203234 0.0007652852  4.185673
 6 Bolivia, Plurinational State of  year 0.005802864 0.0009657515  6.008651
 7                          Brazil  year 0.006107151 0.0008167736  7.477164
 8                          Canada  year 0.001515867 0.0009552118  1.586943
 9                           Chile  year 0.006775560 0.0008220463  8.242310
10                        Colombia  year 0.006157755 0.0009645084  6.384346
# ... with 189 more rows, and 1 more variables: p.value <dbl>
```
…
However, when you have lots of p-values, like one for each country, you run into the problem of multiple hypothesis testing, where you have to set a stricter threshold. The [`p.adjust()`](https://www.rdocumentation.org/packages/stats/topics/p.adjust) function is a simple way to correct for this, where `p.adjust(p.value)` on a vector of p-values returns a set that you can trust.

Here you'll add two steps to process the `slope_terms` dataset: use a `mutate` to create the new, adjusted p-value column, and `filter` to filter for those below a .05 threshold.

```R
# Filter for only the slope terms
slope_terms <- country_coefficients %>%
  filter(term == "year")

# Add p.adjusted column, then filter
slope_terms %>%
  mutate(p.adjusted = p.adjust(p.value)) %>%
  filter(p.adjusted < .05)
# A tibble: 61 x 7
                           country  term    estimate    std.error statistic
                             <chr> <chr>       <dbl>        <dbl>     <dbl>
 1                     Afghanistan  year 0.006009299 0.0007426499  8.091698
 2                       Argentina  year 0.005148829 0.0010610076  4.852773
 3                         Belarus  year 0.003907557 0.0007587624  5.149908
 4                         Belgium  year 0.003203234 0.0007652852  4.185673
 5 Bolivia, Plurinational State of  year 0.005802864 0.0009657515  6.008651
 6                          Brazil  year 0.006107151 0.0008167736  7.477164
 7                           Chile  year 0.006775560 0.0008220463  8.242310
 8                        Colombia  year 0.006157755 0.0009645084  6.384346
 9                      Costa Rica  year 0.006539273 0.0008119113  8.054171
10                            Cuba  year 0.004610867 0.0007205029  6.399512
# ... with 51 more rows, and 2 more variables: p.value <dbl>, p.adjusted <dbl>
```
…
Now that you've filtered for countries where the trend is probably not due to chance, you may be interested in countries whose percentage of "yes" votes is changing most quickly over time. Thus, you want to find the countries with the highest and lowest slopes; that is, the `estimate` column.

```R
# Filter by adjusted p-values
filtered_countries <- country_coefficients %>%
  filter(term == "year") %>%
  mutate(p.adjusted = p.adjust(p.value)) %>%
  filter(p.adjusted < .05)

# Sort for the countries increasing most quickly
filtered_countries %>%
  arrange(desc(estimate))
# A tibble: 61 x 7
               country  term    estimate    std.error statistic      p.value
                 <chr> <chr>       <dbl>        <dbl>     <dbl>        <dbl>
 1        South Africa  year 0.011858333 0.0014003768  8.467959 1.595372e-08
 2          Kazakhstan  year 0.010955741 0.0019482401  5.623404 3.244186e-04
 3 Yemen Arab Republic  year 0.010854882 0.0015869058  6.840281 1.197855e-06
 4          Kyrgyzstan  year 0.009725462 0.0009884060  9.839541 2.379933e-05
 5              Malawi  year 0.009084873 0.0018111087  5.016194 4.480823e-05
 6  Dominican Republic  year 0.008055482 0.0009138578  8.814809 5.957258e-10
 7            Portugal  year 0.008020046 0.0017124482  4.683380 7.132640e-05
 8            Honduras  year 0.007717977 0.0009214260  8.376123 1.431724e-09
 9                Peru  year 0.007299813 0.0009764019  7.476238 1.645381e-08
10           Nicaragua  year 0.007075848 0.0010716402  6.602820 1.918043e-07
# ... with 51 more rows, and 1 more variables: p.adjusted <dbl>
…
